{
  "name": "La Ética en el cuidado de sí y del otro II",
  "image": "portada.jpg",
  "temas": [
    {
      "tema": "Introducción",
      "subtemas": [
        {
          "tema": "Legal",
          "url": "legal.html"
        },
        {
          "tema": "Presentación",
          "url": "presentacion.html"
        },       
        {
          "tema": "UAC I",
          "url": "index.html"
        },
        {
          "tema": "Multidisciplinariedad",
          "url": "multidisciplinariedad.html"
        },
        {
          "tema": "Evaluación diagnóstica",
          "url": "evaluacion_diagnostica.html"
        },
        {
          "tema": "Situación de aprendizaje",
          "url": "situacion_de_aprendizaje.html"
        },
        {
          "tema": "Situación en contexto",
          "url": "situacion_en_contexto.html"
        }
      ]
    },
    {
      "tema": "La satisfacción de las necesidades humanas y de otras especies",
      "subtemas": [
        {
          "tema": "La satisfacción de las necesidades humanas y de otras especies",
          "url": "tema1.0.0.html"
        },
        {
          "tema": "Cuidado y respeto de otras especies",
          "url": "tema1.1.0.html"
        },
        {
          "tema": "Actividad 1",
          "url": "tema1.1.0A1.html"
        },
        {
          "tema": "Actividad DHS",
          "url": "tema1.1.1_dhs.html"
        }

      ]
    },
    {
      "tema": "Papel de la industria, los gobiernos y la sociedad frente a problemas ambientales",
      "subtemas": [
        {
          "tema": "El papel de la industria en relación con la conservación ambiental",
          "url": "tema2.0.0.html"
        },
        {
          "tema": "El rol del gobierno en relación con la conservación ambiental",
          "url": "tema2.1.0.html"
        },
        {
          "tema": "La función de la sociedad en relación con la conservación ambiental",
          "url": "tema2.2.0.html"
        },
        {
          "tema": "Actividad 2",
          "url": "tema2.2.0A2.html"
        },
        {
          "tema": "Criterios para el cuidado del medio ambiente",
          "url": "tema2.3.0.html"
        },
        {
          "tema": "Actividad 3",
          "url": "tema2.3.0A3.html"
        }

      ]
    },
    {
      "tema": "Distribución equitativa y consumo responsable de recursos",
      "subtemas": [
        {
          "tema": "Distribución equitativa y consumo responsable de recursos",
          "url": "tema3.0.0.html"
        },
        {
          "tema": "Actividad 4",
          "url": "tema3.0.0A4.html"
        },
        {
          "tema": "Criterios para el consumo responsable de recursos",
          "url": "tema3.1.0.html"
        },
        {
          "tema": "Actividad 5",
          "url": "tema3.1.0A5.html"
        },
        {
          "tema": "Actividad multidisciplinar",
          "url": "tema3.1.0A5_actividad_multidisciplinar.html"
        },
        {
          "tema": "Actividad DHS",
          "url": "tema3.1.1_dhs.html"
        },
        {
          "tema": "Fomento a la lectura",
          "url": "tema3.1.2_lectura.html"
        },
        {
          "tema": "Oriéntate",
          "url": "tema3.1.2_orientate.html"
        },
        {
          "tema": "Evaluación de situación de aprendizaje",
          "url": "tema3.1.2_situacion_de_aprendizaje.html"
        },
        {
          "tema": "Evaluación objetiva",
          "url": "tema3.1.3_evaluacion_objetiva.html"
        },
        {
          "tema": "Metacognición",
          "url": "tema3.1.3_metacognicion.html"
        },
        {
          "tema": "Evaluación de saberes",
          "url": "tema3.1.4_evaluacion_de_saberes.html"
        },
        {
          "tema": "Prueba tipo PLANEA",
          "url": "tema3.1.4_prueba_planea.html"
        }
      ]
    }
  ]
}